Module 1: Tabular Data
…
Task

Construct a query to find the top 5 sectors in the US by CO2 emissions in 2022. Remember to check the column names in exio to find the appropriate emissions flow.

#a query written based on the task above, used the chatbot and the info provide in the glimpse. schema problem was in the initial url

exio |>
  distinct(stressor) |>
  collect()

# A tibble: 124 × 1
   stressor                                                                     
   <chr>                                                                        
 1 "photochemical oxidation (low NOx) | Problem oriented approach: non baseline…
 2 "photochemical oxidation (MIR; very high NOx) | Problem oriented approach: n…
 3 "Domestic Extraction Used - Forestry and Timber"                             
 4 "Unused Domestic Extraction â\u0080\u0093 Fisheries"                         
 5 "Marine sedimental ecotoxicity (MSETP20) | Problem oriented approach: non ba…
 6 "Particulate matter/Respiratory inorganics midpoint | ILCD recommended CF | …
 7 "Photochemical ozone formation midpoint, human health | ILCD recommended CF …
 8 "Carbon dioxide (CO2) IPCC categories 1 to 4 and 6 to 7 (excl land use, land…
 9 "Freshwater aquatic ecotoxicity (FAETP20) | Problem oriented approach: non b…
10 "Carcinogenic effects on humans (H.A) | ECOINDICATOR 99 (H.A) | Carcinogenic…
# ℹ 114 more rows
…
